<?xml version="1.0" encoding="UTF-8"?>
<svg id="Layer_1" data-name="Layer 1" xmlns="http://www.w3.org/2000/svg" version="1.1" viewBox="0 0 24 24">
  <defs>
    <style>
      .cls-1 {
        fill: #000;
        stroke-width: 0px;
      }
    </style>
  </defs>
  <path class="cls-1" d="M12,19.5l4.1-4c.1-.1.3-.2.5-.2.2,0,.4,0,.5.2.2.2.2.3.2.5,0,.2,0,.4-.2.5l-4,4c-.3.3-.7.4-1.1.4s-.8-.1-1.1-.4l-4-4c-.1-.1-.2-.3-.2-.5,0-.2,0-.4.2-.5.2-.2.3-.2.5-.2.2,0,.4,0,.5.2l4,4ZM12,4.5l-4,4c-.1.1-.3.2-.5.2s-.4,0-.5-.2c-.2-.2-.2-.3-.2-.5,0-.2,0-.4.2-.5l4-4c.3-.3.7-.4,1.1-.4s.8.1,1.1.4l4,4c.1.1.2.3.2.5,0,.2,0,.4-.2.5-.2.1-.3.2-.5.2-.2,0-.4,0-.5-.2l-4-4Z"/>
</svg>