<?xml version="1.0" encoding="UTF-8"?>
<svg id="Layer_1" data-name="Layer 1" xmlns="http://www.w3.org/2000/svg" version="1.1" viewBox="0 0 24 24">
  <defs>
    <style>
      .cls-1 {
        fill: #000;
        stroke-width: 0px;
      }
    </style>
  </defs>
  <path class="cls-1" d="M6.3,18.6c-.3,0-.5,0-.6-.3-.2-.2-.3-.4-.3-.6s0-.5.3-.6c.2-.2.4-.3.6-.3h2.9l3.2-9.6h-2.9c-.3,0-.5,0-.6-.3-.2-.2-.3-.4-.3-.6s0-.5.3-.6c.2-.2.4-.3.6-.3h7.3c.3,0,.5,0,.6.3.2.2.3.4.3.6s0,.5-.3.6c-.2.2-.4.3-.6.3h-2.6l-3.2,9.6h2.6c.3,0,.5,0,.6.3.2.2.3.4.3.6s0,.5-.3.6c-.2.2-.4.3-.6.3h-7.3Z"/>
</svg>