<?xml version="1.0" encoding="UTF-8"?>
<svg id="Layer_1" data-name="Layer 1" xmlns="http://www.w3.org/2000/svg" version="1.1" viewBox="0 0 24 24">
  <defs>
    <style>
      .cls-1 {
        fill: #000;
        stroke-width: 0px;
      }
    </style>
  </defs>
  <path class="cls-1" d="M9.5,15.6c-1.7,0-3.2-.6-4.3-1.8-1.2-1.2-1.8-2.6-1.8-4.3s.6-3.2,1.8-4.3,2.6-1.8,4.3-1.8,3.2.6,4.3,1.8c1.2,1.2,1.8,2.6,1.8,4.3s-.1,1.4-.4,2c-.2.7-.6,1.2-1,1.7l5.8,5.8c.1.1.2.3.2.5,0,.2,0,.4-.2.5-.1.1-.3.2-.5.2s-.4,0-.5-.2l-5.8-5.8c-.5.4-1.1.7-1.7,1-.6.2-1.3.4-2,.4ZM9.5,14.1c1.3,0,2.4-.4,3.3-1.3.9-.9,1.3-2,1.3-3.3s-.4-2.4-1.3-3.3c-.9-.9-2-1.3-3.3-1.3s-2.4.4-3.3,1.3c-.9.9-1.3,2-1.3,3.3s.4,2.4,1.3,3.3c.9.9,2,1.3,3.3,1.3Z"/>
</svg>